ST558_Homework4_Week6 - Wenna Han
…
  return(article_info)
}

# Use the function twice
api_key <- "d0c08c5bbcd3476aa22de1b997561871"

# test 1: Query for the topic "Business" from the past 30 days
result_business <- query_news_api(query = "Business", from_date = Sys.Date() - 30, api_key = api_key)
print(result_business)

# A tibble: 100 × 9
   id        name  author title description url   urlToImage publishedAt content
   <chr>     <chr> <chr>  <chr> <chr>       <chr> <chr>      <chr>       <chr>  
 1 wired     Wired Justi… How … "In this c… http… https://m… 2024-06-16… "So th…
 2 <NA>      Yaho… Will … Jabr… "Jabra is … http… <NA>       2024-06-12… "If yo…
 3 wired     Wired Kate … AI I… "Generativ… http… https://m… 2024-06-04… "Yet i…
 4 <NA>      BBC … <NA>   More… "More than… http… https://i… 2024-05-27… "Dozen…
 5 <NA>      BBC … <NA>   Sarw… "The Scott… http… https://i… 2024-05-26… "Anas …
 6 <NA>      Gizm… Maxwe… May … "McDonald’… http… https://i… 2024-06-17… "McDon…
 7 <NA>      Gizm… Gordo… The … "House of … http… https://i… 2024-06-07… "House…
 8 business… Busi… Lara … Busi… "Business … http… https://i… 2024-06-18… "From …
 9 business… Busi… Matth… I to… "Lauri Uni… http… https://i… 2024-06-12… "Lauri…
10 business… Busi… Isabe… I pu… "Business … http… https://i… 2024-06-13… "Harri…
# ℹ 90 more rows

# test 2:Query for the topic "Tesla" from 2024-05-30
result_tesla <- query_news_api(query = "Tesla", from_date = 2024-05-30, api_key = api_key)
print(result_tesla)

# A tibble: 100 × 9
   id        name  author title description url   urlToImage publishedAt content
   <chr>     <chr> <chr>  <chr> <chr>       <chr> <chr>      <chr>       <chr>  
 1 wired     Wired Aaria… Tesl… "Elon Musk… http… https://m… 2024-06-13… "Under…
 2 <NA>      [Rem… <NA>   [Rem… "[Removed]" http… <NA>       1970-01-01… "[Remo…
 3 <NA>      Yaho… Sarah… Tesl… "Tesla is … http… <NA>       2024-05-31… "If yo…
 4 wired     Wired Boone… Thin… "Plus: Wil… http… https://m… 2024-06-08… "Each …
 5 <NA>      Gizm… Colli… New … "The Tesla… http… https://i… 2024-05-28… "The T…
 6 business… Busi… Ana A… Tesl… "Tesla is … http… https://i… 2024-06-06… "Tesla…
 7 ars-tech… Ars … Jonat… Nvid… "The Tesla… http… https://c… 2024-06-04… "Enlar…
 8 the-verge The … Andre… The … "The 2024 … http… https://c… 2024-05-30… "ByAnd…
 9 <NA>      BBC … <NA>   Musk… "He previo… http… https://i… 2024-05-24… "Peter…
10 <NA>      [Rem… <NA>   [Rem… "[Removed]" http… <NA>       1970-01-01… "[Remo…
# ℹ 90 more rows
